Final
…
## The following object is masked from 'package:readr':
## 
##     guess_encoding

Data

Question 1

How does the team performance change after the coach wins the Jack Adams award?

answer

## # A tibble: 200 x 9
##    coachID     year tmID      g     w     l     t award      won_award
##    <chr>      <dbl> <chr> <dbl> <dbl> <dbl> <dbl> <chr>      <lgl>    
##  1 allisda01c  1995 OTT      25     2    22     1 <NA>       FALSE    
##  2 beverni01c  1995 TOR      17     9     6     2 <NA>       FALSE    
##  3 bowmasc01c  1995 DET      82    62    13     7 Jack Adams TRUE     
##  4 bowneri01c  1995 OTT      19     6    13     0 <NA>       FALSE    
##  5 burnspa01c  1995 TOR      65    25    30    10 <NA>       FALSE    
##  6 campbco01c  1995 NYR      82    41    27    14 <NA>       FALSE    
##  7 constke01c  1995 SJS      25     3    18     4 <NA>       FALSE    
##  8 crawfma01c  1995 COL      82    47    25    10 <NA>       FALSE    
##  9 crispte01c  1995 TBL      82    38    32    12 <NA>       FALSE    
## 10 demerja01c  1995 MTL       4     0     4     0 <NA>       FALSE    
## #  with 190 more rows
…
